custom_button = {
    name = swap_deity_button
    potential = {
    	OR = {
    		religion = regent_court
    		religion = infernal_court
    	}
    	OR = {
    		#Regent Court
    		has_personal_deity = castellos
			has_personal_deity = lightfather
    		has_personal_deity = the_dame
    		has_personal_deity = corin
    		has_personal_deity = adean
    		has_personal_deity = adean_upgraded_admin
    		has_personal_deity = adean_upgraded_war
    		has_personal_deity = munas_moonsinger
    		has_personal_deity = munas_upgraded
    		has_personal_deity = ara
    		has_personal_deity = balgar
    		has_personal_deity = balgar_upgraded
    		has_personal_deity = esmaryal
    		has_personal_deity = ryala
    		has_personal_deity = ryala_upgraded
    		has_personal_deity = minara
    		has_personal_deity = falah
    		has_personal_deity = falah_upgraded
    		has_personal_deity = nerat
    		has_personal_deity = nathalyne
    		has_personal_deity = begga
    		has_personal_deity = dookan

    		#Infernal Court
    		has_personal_deity = kazraiel
			has_personal_deity = hedine
    		has_personal_deity = forsara
    		has_personal_deity = ibberal
    		has_personal_deity = ildran
    		has_personal_deity = mesner
    		has_personal_deity = canturian
    	}
    }
    trigger = {
    	if = {
    		limit = { religion = regent_court }
    		custom_trigger_tooltip = {
				tooltip = swap_deity_tt_2
				OR = {
					NOT = { has_country_flag = regent_court_deity_switch_cooldown }
					had_country_flag = {
						flag = regent_court_deity_switch_cooldown
						days = 3500
					}
				}
			}
    	}
    	else_if = {
    		limit = { religion = infernal_court }
    		custom_trigger_tooltip = {
				tooltip = swap_deity_tt_2
				OR = {
					NOT = { has_country_flag = infernal_court_deity_switch_cooldown }
					had_country_flag = {
						flag = infernal_court_deity_switch_cooldown
						days = 3500
					}
				}
			}
    	}
		has_regency = no
		hidden_trigger = {
			NOT = {
				has_country_flag = regent_court_menu_open
				has_country_flag = infernal_court_menu_open
			}
		}
    }
    effect = {
    	hidden_effect = {
    		if = {
    			limit = { religion = regent_court }
    			country_event = { id = regent_court.2 }
    		}
    		else_if = {
    			limit = { religion = infernal_court }
    			country_event = { id = infernal_events.17 }
    		}
    	}
    }
    tooltip = swap_deity_tt
}